{
    "error_code": 0,
    "error_message": "",
    "todos": [
        {
            "id": 1,
            "title": "test1",
            "detail": "testtest",
            "date": null
        },
        {
            "id": 2,
            "title": "test2",
            "detail": null,
            "date": "2020-08-03T00:00:00.000Z"
        },
        {
            "id": 3,
            "title": "test3",
            "detail": null,
            "date": null
        }
    ]
}
